{
    "filesToWatch": "/home/joander/developer/joander/conecthare/sources/illuminare/src/main/webapp//static/**",
    "directoryToWatch": "/home/joander/developer/joander/conecthare/sources/illuminare/src/main/webapp//static",
    "projectRootPath": "/home/joander/developer/joander/conecthare/sources/illuminare",
    "targetPath": "/home/joander/developer/joander/conecthare/sources/illuminare/target",
    "sourceDirectory": "src/main/webapp/",
    "jsSourceDirectory": "static",
    "filteredFiles": ["**/node_modules.tar"]
}